Lab 1 – ADS_fundamentals
…
Remember to use the %>% operator!

Filtering data

The filter() function allows you to subset observations based on their values. The first argument is the name of the data frame. The second and subsequent arguments are the expressions that filter the data frame.

R provides the following options for filtering: >, >=, <, <=, != (not equal), and == (equal). You can also combine these with the following logical operators: & meaning “and”, | meaning “or”, and ! meaning “not”.

Use the filter() function to display only married people in the gss_cat data set.

gss_cat %>% 
  filter(marital == "Married")

# A tibble: 10,117 × 9
    year marital   age race  rincome        partyid          relig denom tvhours
   <int> <fct>   <int> <fct> <fct>          <fct>            <fct> <fct>   <int>
 1  2000 Married    25 White $20000 - 24999 Strong democrat  Prot… Sout…      NA
 2  2000 Married    44 White $25000 or more Not str democrat Prot… Other       0
 3  2000 Married    47 White $25000 or more Strong republic… Prot… Sout…       3
 4  2000 Married    53 White $25000 or more Not str democrat Prot… Other       2
 5  2000 Married    52 White $25000 or more Ind,near rep     None  Not …      NA
 6  2000 Married    52 White $25000 or more Strong democrat  Prot… Sout…       1
 7  2000 Married    51 White $25000 or more Strong republic… Prot… Unit…      NA
 8  2000 Married    40 Black $25000 or more Strong democrat  Prot… Bapt…       7
 9  2000 Married    40 White $10000 - 14999 Not str democrat Cath… Not …       3
10  2000 Married    45 Black Not applicable Independent      Prot… Unit…      NA
# ℹ 10,107 more rows

# Since we only want to find married people we will use the equal operator, ==, and encase the observations we want in quotes.*

Use the filter() function to display divorced AND widowed people in the gss_cat data set.

gss_cat %>% 
  filter(marital == "Divorced" | marital == "Widowed")

# A tibble: 5,190 × 9
    year marital    age race  rincome        partyid         relig denom tvhours
   <int> <fct>    <int> <fct> <fct>          <fct>           <fct> <fct>   <int>
 1  2000 Divorced    48 White $8000 to 9999  Not str republ… Prot… Bapt…      NA
 2  2000 Widowed     67 White Not applicable Independent     Prot… No d…       2
 3  2000 Divorced    25 White Not applicable Not str democr… None  Not …       1
 4  2000 Divorced    44 White $7000 to 7999  Ind,near dem    Prot… Luth…      NA
 5  2000 Divorced    52 White $25000 or more Ind,near dem    None  Not …       1
 6  2000 Widowed     77 White Not applicable Strong republi… Jewi… Not …      NA
 7  2000 Widowed     54 White $25000 or more Ind,near rep    Chri… Not …       1
 8  2000 Widowed     82 White Not applicable Not str democr… Prot… Other       3
 9  2000 Widowed     83 White Not applicable Strong democrat Prot… Epis…      NA
10  2000 Widowed     89 White Not applicable Not str democr… Prot… Othe…       4
# ℹ 5,180 more rows

# In this case we need to combine logical operators. The or operator is appropriate here since we are looking for two kinds of matches in the same variable (& would not work since people cannot be both divorced and widowed). We combine this with the equal operator.

Arranging data

Use the arrange() function to reorder the information in the data frame by the number of tv hours.

gss_cat %>% 
  arrange(tvhours)

# A tibble: 21,483 × 9
    year marital         age race  rincome        partyid    relig denom tvhours
   <int> <fct>         <int> <fct> <fct>          <fct>      <fct> <fct>   <int>
 1  2000 Married          44 White $25000 or more Not str d… Prot… Other       0
 2  2000 Never married    23 White $1000 to 2999  Strong de… Prot… Other       0
 3  2000 Never married    32 White $25000 or more Not str r… Cath… Not …       0
 4  2000 Divorced         39 White Refused        Independe… None  Not …       0
 5  2000 Separated        57 Black Not applicable Ind,near … None  Not …       0
 6  2000 Widowed          78 White Not applicable Not str r… Prot… Unit…       0
 7  2000 Married          45 Other Refused        Independe… None  Not …       0
 8  2000 Never married    28 White $25000 or more Other par… Prot… No d…       0
 9  2000 Widowed          65 White $6000 to 6999  Strong de… Cath… Not …       0
10  2000 Never married    34 Black $10000 - 14999 Not str d… None  Not …       0
# ℹ 21,473 more rows

# Arrange only needs one argument, the variable you wish to reorder. Arrange orders the rows of a gss_cat by the tvhours column. The default here is to arrange in ascending order.

You can combine arrange() with functions like desc() to re-order a column in descending order. Try doing this.

gss_cat %>%
  arrange(desc(tvhours))

# A tibble: 21,483 × 9
    year marital         age race  rincome        partyid    relig denom tvhours
   <int> <fct>         <int> <fct> <fct>          <fct>      <fct> <fct>   <int>
 1  2000 Never married    30 Black Not applicable Independe… Prot… Bapt…      24
 2  2000 Separated        45 Black Not applicable Ind,near … Prot… Other      24
 3  2002 Never married    33 White $6000 to 6999  Independe… Cath… Not …      24
 4  2006 Divorced         53 Black Not applicable Strong de… Prot… Sout…      24
 5  2008 Divorced         50 Black No answer      Ind,near … Prot… Bapt…      24
 6  2008 Never married    44 White Not applicable Independe… Prot… Other      24
 7  2008 Never married    21 White Don't know     Independe… Cath… Not …      24
 8  2008 Widowed          71 White Not applicable Strong de… Prot… Don'…      24
 9  2010 Widowed          62 Black Not applicable Strong de… Prot… Am b…      24
10  2010 Widowed          52 Black Refused        Strong de… Prot… Bapt…      24
# ℹ 21,473 more rows

# When combining these functions you need to wrap arrange around the operation you want to do.

How would you filter only married people and arrange them by how much tv they watch?

Hint: You need to combine filter and arrange using the %>%

gss_cat %>% 
  filter(marital == "Married") %>% 
  arrange(tvhours)

# A tibble: 10,117 × 9
    year marital   age race  rincome        partyid          relig denom tvhours
   <int> <fct>   <int> <fct> <fct>          <fct>            <fct> <fct>   <int>
 1  2000 Married    44 White $25000 or more Not str democrat Prot… Other       0
 2  2000 Married    45 Other Refused        Independent      None  Not …       0
 3  2000 Married    35 White Refused        Strong republic… Prot… Other       0
 4  2000 Married    38 White $20000 - 24999 Ind,near dem     Cath… Not …       0
 5  2000 Married    25 White $15000 - 19999 Strong republic… Prot… No d…       0
 6  2000 Married    48 White $25000 or more Ind,near dem     Prot… Other       0
 7  2000 Married    37 White $25000 or more Not str democrat Prot… Unit…       0
 8  2000 Married    39 White Lt $1000       Not str democrat Prot… Othe…       0
 9  2000 Married    49 White $20000 - 24999 Independent      Prot… No d…       0
10  2000 Married    33 White $1000 to 2999  Not str democrat Prot… Other       0
# ℹ 10,107 more rows
…
